Assignment 5 continued – BCB520Portfolio
…
final_ballot <- final_ballot |> 
  mutate(Award = case_when(
    Award == "Frank" ~ "Selke",
    Award == "James" ~ "Norris",
    Award == "Lady" ~ "Byng",
    TRUE ~ Award  # Keep other entries unchanged
  ))

saveRDS(final_ballot, file="Sharon_final_ballot_combined.rds")

print(final_ballot)

# A tibble: 30 × 4
# Groups:   Award [6]
   Award  Player     sumscore  Rank
   <chr>  <chr>         <dbl> <int>
 1 Calder Marchenko        55     1
 2 Calder Johnston         45     2
 3 Calder Rossi            24     3
 4 Calder Holloway         16     4
 5 Calder Johnson          12     5
 6 Selke  Tanev            20     1
 7 Selke  Blake            17     2
 8 Selke  MacKinnon        15     3
 9 Selke  Tuch             14     4
10 Selke  Zetterlund       14     5
# ℹ 20 more rows
…
